{
  "global": {
    "$--color-primary": "#6662F0",
    "$--color-text-primary": "#333333",
    "$--color-text-regular": "#333333",
    "$--border-color-base": "#393939",
    "$--border-radius-base": "4px",
    "$--box-shadow-base": "0 0 0 0 rgba(0, 0, 0, 0), 0 0 0 0 rgba(0, 0, 0, 0)",
    "$--box-shadow-light": "0 0 0 0 rgba(0, 0, 0, 0)"
  },
  "local": {
    "$--button-border-radius": "$--border-radius-base",
    "$--card-border-color": "#D6D6D6",
    "$--link-default-font-color": "#6662F0",
    "$--link-default-active-color": "#76D0EB",
    "$--notification-title-color": "$--color-text-primary",
    "$--messagebox-title-color": "$--color-text-primary",
    "$--popup-modal-background-color": "$--color-text-primary",
    "$--popup-modal-opacity": "0.8",
    "$--switch-on-color": "$--color-primary",
    "$--table-row-hover-background-color": "#F7F7FE",
    "$--table-border-color": "#E0E0FC"
  }
}
